{
    "data":
    [
		{
        	"obstaclePosX": 
			[
			32,32,32,33,0,32.5,33
        	],
        	"obstaclePosY": 
			[
			1,1,-0.47,-0.47,0,2,1
        	],
			"obstaclePosZ":
			[
			60,60,60,63,60,60,60
			]
		}
    ]
}